<?xml version="1.0" encoding="UTF-8"?>
<svg width="128px" height="128px" viewBox="0 0 128 128" version="1.1" xmlns="http://www.w3.org/2000/svg" xmlns:xlink="http://www.w3.org/1999/xlink">
    <!-- Generator: Sketch 63.1 (92452) - https://sketch.com -->
    <title>Custom Preset</title>
    <desc>Created with Sketch.</desc>
    <g id="Page-1" stroke="none" stroke-width="1" fill="none" fill-rule="evenodd">
        <g id="Custom-Preset" transform="translate(-500.000000, -181.000000)">
            <g id="Group" transform="translate(500.000000, 181.000000)">
                <path d="M64,111.979492 C81.6605995,111.979492 99,99.1026032 99,76.5625 C99,58.6240234 92.6651132,51.7633255 81.5,32.7626953 C75.1651132,21.9820755 72.75,17 64,17 C55.25,17 52.8348868,21.9820755 46.5,32.7626953 C35.3348868,51.7633255 29,57.7470703 29,76.5625 C29,98.871629 46.3394005,111.979492 64,111.979492 Z" id="Path" stroke="#76BB48" stroke-width="8.3" fill="#76BB48" stroke-linecap="square"></path>
                <path d="M63.5,100.830325 C67.6516245,100.830325 71.3880866,99.8616125 74.7093863,97.9241877 C78.0306859,95.9867629 80.6738869,93.3158845 82.6389892,89.9115523 C84.6040915,86.5072202 85.5866426,82.5908544 85.5866426,78.1624549 C85.5866426,73.6787004 84.6040915,69.734657 82.6389892,66.3303249 C80.6738869,62.9259928 78.0306859,60.2412756 74.7093863,58.2761733 C71.3880866,56.311071 67.6516245,55.3285199 63.5,55.3285199 C59.4037304,55.3285199 55.6811071,56.311071 52.33213,58.2761733 C48.9831528,60.2412756 46.3261131,62.9259928 44.3610108,66.3303249 C42.3959085,69.734657 41.4133574,73.6787004 41.4133574,78.1624549 C41.4133574,82.5908544 42.3959085,86.5072202 44.3610108,89.9115523 C46.3261131,93.3158845 48.9831528,95.9867629 52.33213,97.9241877 C55.6811071,99.8616125 59.4037304,100.830325 63.5,100.830325 Z" id="o" fill="#8C251C" fill-rule="nonzero"></path>
            </g>
        </g>
    </g>
</svg>